module gitlab.bcowtech.de/bcow-go/log

go 1.14

require (
	github.com/niemeyer/pretty v0.0.0-20200227124842-a10e7caefd8e // indirect
	github.com/satori/go.uuid v1.2.0
	gopkg.in/check.v1 v1.0.0-20200902074654-038fdea0a05b // indirect
)
